---
http_interactions:
- request:
    method: get
    uri: https://test.lingu.com/api/v1/examinations
    body:
      encoding: US-ASCII
      string: ''
    headers:
      X-Api-Token:
      - Token token="<API_KEY>"
      User-Agent:
      - Lingutest Ruby Client
      Content-Type:
      - application/json
      Accept:
      - application/json
  response:
    status:
      code: 200
      message: OK
    headers:
      content-type:
      - application/json
      etag:
      - W/"fd8887b98b39e0b55751fe24502ff313"
      cache-control:
      - max-age=0, private, must-revalidate
      x-request-id:
      - 3167c82a-4cb4-4d0a-89ec-4652f37fbfc7
      x-runtime:
      - '0.223891'
      transfer-encoding:
      - chunked
    body:
      encoding: UTF-8
      string: '{"limit_value":10,"current_page":1,"total_pages":1,"total_count":6,"per_page":10,"page":1,"examinations":[{"id":36,"exam":{"id":4,"name":"Associate
        Degree in Commerce","price":"9.99","locale":"nb","description":null,"updated_at":"2023-02-17T15:06:59.641Z"},"candidate":{"id":18,"fname":"Sean","lname":"Palmer","email":"palmer@gmail.com","gender":"male","ssn":"11111111111","locale":"en","mobile":"11111111"},"created_at":"2023-02-22T11:25:57.463Z","updated_at":"2023-03-08T18:31:59.368Z","expires_at":"2023-03-24T11:25:57.453Z","max_score":3400,"total_score":3500,"tasks_limit":5,"total_time_spent":901,"status":"in_progress","locale":"nb","code":"m3HNZM","redirect_url":null,"team_id":null,"team_group_id":null,"student_id":null,"price":"9.99","review_status":"no_review","comment":null},{"id":35,"exam":{"id":3,"name":"Associate
        Degree in Design","price":"9.99","locale":"nb","description":null,"updated_at":"2023-02-14T15:34:37.515Z"},"candidate":{"id":18,"fname":"Sean","lname":"Palmer","email":"palmer@gmail.com","gender":"male","ssn":"11111111111","locale":"en","mobile":"11111111"},"created_at":"2023-02-22T11:25:57.434Z","updated_at":"2023-03-08T18:31:59.364Z","expires_at":"2023-03-24T11:25:57.425Z","max_score":3400,"total_score":3500,"tasks_limit":5,"total_time_spent":901,"status":"in_progress","locale":"nb","code":"8eqa6X","redirect_url":null,"team_id":null,"team_group_id":null,"student_id":null,"price":"9.99","review_status":"no_review","comment":null},{"id":34,"exam":{"id":2,"name":"Associate
        Degree in Psychology","price":"9.99","locale":"nb","description":null,"updated_at":"2023-02-14T15:34:35.457Z"},"candidate":{"id":18,"fname":"Sean","lname":"Palmer","email":"palmer@gmail.com","gender":"male","ssn":"11111111111","locale":"en","mobile":"11111111"},"created_at":"2023-02-22T11:25:57.396Z","updated_at":"2023-03-08T18:31:59.359Z","expires_at":"2023-03-24T11:25:57.382Z","max_score":3400,"total_score":3500,"tasks_limit":5,"total_time_spent":901,"status":"in_progress","locale":"nb","code":"07LUDW","redirect_url":null,"team_id":null,"team_group_id":null,"student_id":null,"price":"9.99","review_status":"no_review","comment":null},{"id":33,"exam":{"id":4,"name":"Associate
        Degree in Commerce","price":"9.99","locale":"nb","description":null,"updated_at":"2023-02-17T15:06:59.641Z"},"candidate":{"id":18,"fname":"Sean","lname":"Palmer","email":"palmer@gmail.com","gender":"male","ssn":"11111111111","locale":"en","mobile":"11111111"},"created_at":"2023-02-22T10:15:31.831Z","updated_at":"2023-03-08T18:31:59.536Z","expires_at":"2023-03-24T10:15:31.822Z","max_score":3400,"total_score":3500,"tasks_limit":5,"total_time_spent":901,"status":"in_progress","locale":"nb","code":"FpvVL0","redirect_url":null,"team_id":null,"team_group_id":null,"student_id":null,"price":"9.99","review_status":"no_review","comment":null},{"id":32,"exam":{"id":2,"name":"Associate
        Degree in Psychology","price":"9.99","locale":"nb","description":null,"updated_at":"2023-02-14T15:34:35.457Z"},"candidate":{"id":12,"fname":"Alexandra","lname":"Lee","email":"alexandra.lee@example.com","gender":"female","ssn":"12029845666","locale":"en","mobile":"91122335"},"created_at":"2023-02-22T10:15:24.807Z","updated_at":"2023-03-08T18:31:59.533Z","expires_at":"2023-03-24T10:15:24.795Z","max_score":3400,"total_score":3500,"tasks_limit":5,"total_time_spent":901,"status":"in_progress","locale":"nb","code":"Pxc0oE","redirect_url":null,"team_id":null,"team_group_id":null,"student_id":null,"price":"9.99","review_status":"no_review","comment":null},{"id":31,"exam":{"id":2,"name":"Associate
        Degree in Psychology","price":"9.99","locale":"nb","description":null,"updated_at":"2023-02-14T15:34:35.457Z"},"candidate":{"id":18,"fname":"Sean","lname":"Palmer","email":"palmer@gmail.com","gender":"male","ssn":"11111111111","locale":"en","mobile":"11111111"},"created_at":"2023-02-22T10:15:24.566Z","updated_at":"2023-03-08T18:31:59.448Z","expires_at":"2023-03-24T10:15:24.522Z","max_score":3400,"total_score":3500,"tasks_limit":5,"total_time_spent":901,"status":"in_progress","locale":"nb","code":"8XQRJn","redirect_url":null,"team_id":null,"team_group_id":null,"student_id":null,"price":"9.99","review_status":"no_review","comment":null}]}'
  recorded_at: Thu, 09 Mar 2023 12:55:04 GMT
- request:
    method: get
    uri: https://test.lingu.com/api/v1/examinations?student_id_eq=1&team_group_id_eq=2&team_id_eq=2
    body:
      encoding: US-ASCII
      string: ''
    headers:
      X-Api-Token:
      - Token token="<API_KEY>"
      User-Agent:
      - Lingutest Ruby Client
      Content-Type:
      - application/json
      Accept:
      - application/json
  response:
    status:
      code: 200
      message: OK
    headers:
      content-type:
      - application/json
      etag:
      - W/"fd8887b98b39e0b55751fe24502ff313"
      cache-control:
      - max-age=0, private, must-revalidate
      x-request-id:
      - '0826fad3-2b4b-494a-a5b4-6582b2fcf209'
      x-runtime:
      - '0.011722'
      transfer-encoding:
      - chunked
    body:
      encoding: UTF-8
      string: '{"limit_value":10,"current_page":1,"total_pages":1,"total_count":6,"per_page":10,"page":1,"examinations":[{"id":36,"exam":{"id":4,"name":"Associate
        Degree in Commerce","price":"9.99","locale":"nb","description":null,"updated_at":"2023-02-17T15:06:59.641Z"},"candidate":{"id":18,"fname":"Sean","lname":"Palmer","email":"palmer@gmail.com","gender":"male","ssn":"11111111111","locale":"en","mobile":"11111111"},"created_at":"2023-02-22T11:25:57.463Z","updated_at":"2023-03-08T18:31:59.368Z","expires_at":"2023-03-24T11:25:57.453Z","max_score":3400,"total_score":3500,"tasks_limit":5,"total_time_spent":901,"status":"in_progress","locale":"nb","code":"m3HNZM","redirect_url":null,"team_id":null,"team_group_id":null,"student_id":null,"price":"9.99","review_status":"no_review","comment":null},{"id":35,"exam":{"id":3,"name":"Associate
        Degree in Design","price":"9.99","locale":"nb","description":null,"updated_at":"2023-02-14T15:34:37.515Z"},"candidate":{"id":18,"fname":"Sean","lname":"Palmer","email":"palmer@gmail.com","gender":"male","ssn":"11111111111","locale":"en","mobile":"11111111"},"created_at":"2023-02-22T11:25:57.434Z","updated_at":"2023-03-08T18:31:59.364Z","expires_at":"2023-03-24T11:25:57.425Z","max_score":3400,"total_score":3500,"tasks_limit":5,"total_time_spent":901,"status":"in_progress","locale":"nb","code":"8eqa6X","redirect_url":null,"team_id":null,"team_group_id":null,"student_id":null,"price":"9.99","review_status":"no_review","comment":null},{"id":34,"exam":{"id":2,"name":"Associate
        Degree in Psychology","price":"9.99","locale":"nb","description":null,"updated_at":"2023-02-14T15:34:35.457Z"},"candidate":{"id":18,"fname":"Sean","lname":"Palmer","email":"palmer@gmail.com","gender":"male","ssn":"11111111111","locale":"en","mobile":"11111111"},"created_at":"2023-02-22T11:25:57.396Z","updated_at":"2023-03-08T18:31:59.359Z","expires_at":"2023-03-24T11:25:57.382Z","max_score":3400,"total_score":3500,"tasks_limit":5,"total_time_spent":901,"status":"in_progress","locale":"nb","code":"07LUDW","redirect_url":null,"team_id":null,"team_group_id":null,"student_id":null,"price":"9.99","review_status":"no_review","comment":null},{"id":33,"exam":{"id":4,"name":"Associate
        Degree in Commerce","price":"9.99","locale":"nb","description":null,"updated_at":"2023-02-17T15:06:59.641Z"},"candidate":{"id":18,"fname":"Sean","lname":"Palmer","email":"palmer@gmail.com","gender":"male","ssn":"11111111111","locale":"en","mobile":"11111111"},"created_at":"2023-02-22T10:15:31.831Z","updated_at":"2023-03-08T18:31:59.536Z","expires_at":"2023-03-24T10:15:31.822Z","max_score":3400,"total_score":3500,"tasks_limit":5,"total_time_spent":901,"status":"in_progress","locale":"nb","code":"FpvVL0","redirect_url":null,"team_id":null,"team_group_id":null,"student_id":null,"price":"9.99","review_status":"no_review","comment":null},{"id":32,"exam":{"id":2,"name":"Associate
        Degree in Psychology","price":"9.99","locale":"nb","description":null,"updated_at":"2023-02-14T15:34:35.457Z"},"candidate":{"id":12,"fname":"Alexandra","lname":"Lee","email":"alexandra.lee@example.com","gender":"female","ssn":"12029845666","locale":"en","mobile":"91122335"},"created_at":"2023-02-22T10:15:24.807Z","updated_at":"2023-03-08T18:31:59.533Z","expires_at":"2023-03-24T10:15:24.795Z","max_score":3400,"total_score":3500,"tasks_limit":5,"total_time_spent":901,"status":"in_progress","locale":"nb","code":"Pxc0oE","redirect_url":null,"team_id":null,"team_group_id":null,"student_id":null,"price":"9.99","review_status":"no_review","comment":null},{"id":31,"exam":{"id":2,"name":"Associate
        Degree in Psychology","price":"9.99","locale":"nb","description":null,"updated_at":"2023-02-14T15:34:35.457Z"},"candidate":{"id":18,"fname":"Sean","lname":"Palmer","email":"palmer@gmail.com","gender":"male","ssn":"11111111111","locale":"en","mobile":"11111111"},"created_at":"2023-02-22T10:15:24.566Z","updated_at":"2023-03-08T18:31:59.448Z","expires_at":"2023-03-24T10:15:24.522Z","max_score":3400,"total_score":3500,"tasks_limit":5,"total_time_spent":901,"status":"in_progress","locale":"nb","code":"8XQRJn","redirect_url":null,"team_id":null,"team_group_id":null,"student_id":null,"price":"9.99","review_status":"no_review","comment":null}]}'
  recorded_at: Thu, 09 Mar 2023 12:55:04 GMT
- request:
    method: get
    uri: https://test.lingu.com/api/v1/examinations?page=2&per_page=2
    body:
      encoding: US-ASCII
      string: ''
    headers:
      X-Api-Token:
      - Token token="<API_KEY>"
      User-Agent:
      - Lingutest Ruby Client
      Content-Type:
      - application/json
      Accept:
      - application/json
  response:
    status:
      code: 200
      message: OK
    headers:
      content-type:
      - application/json
      etag:
      - W/"4ad94ed4cf7898777d648b1aa6d23ac2"
      cache-control:
      - max-age=0, private, must-revalidate
      x-request-id:
      - b795576a-d450-4db7-8cd4-e84751446f38
      x-runtime:
      - '0.009792'
      transfer-encoding:
      - chunked
    body:
      encoding: UTF-8
      string: '{"limit_value":2,"current_page":2,"total_pages":3,"total_count":6,"per_page":2,"page":2,"examinations":[{"id":34,"exam":{"id":2,"name":"Associate
        Degree in Psychology","price":"9.99","locale":"nb","description":null,"updated_at":"2023-02-14T15:34:35.457Z"},"candidate":{"id":18,"fname":"Sean","lname":"Palmer","email":"palmer@gmail.com","gender":"male","ssn":"11111111111","locale":"en","mobile":"11111111"},"created_at":"2023-02-22T11:25:57.396Z","updated_at":"2023-03-08T18:31:59.359Z","expires_at":"2023-03-24T11:25:57.382Z","max_score":3400,"total_score":3500,"tasks_limit":5,"total_time_spent":901,"status":"in_progress","locale":"nb","code":"07LUDW","redirect_url":null,"team_id":null,"team_group_id":null,"student_id":null,"price":"9.99","review_status":"no_review","comment":null},{"id":33,"exam":{"id":4,"name":"Associate
        Degree in Commerce","price":"9.99","locale":"nb","description":null,"updated_at":"2023-02-17T15:06:59.641Z"},"candidate":{"id":18,"fname":"Sean","lname":"Palmer","email":"palmer@gmail.com","gender":"male","ssn":"11111111111","locale":"en","mobile":"11111111"},"created_at":"2023-02-22T10:15:31.831Z","updated_at":"2023-03-08T18:31:59.536Z","expires_at":"2023-03-24T10:15:31.822Z","max_score":3400,"total_score":3500,"tasks_limit":5,"total_time_spent":901,"status":"in_progress","locale":"nb","code":"FpvVL0","redirect_url":null,"team_id":null,"team_group_id":null,"student_id":null,"price":"9.99","review_status":"no_review","comment":null}]}'
  recorded_at: Thu, 09 Mar 2023 12:55:04 GMT
recorded_with: VCR 6.1.0
